,,t1,t2,t3,t4,t5,t6,t7,t8,t16,t32
sac t1 ds1,12.627209,0.998350026,1.963940888,2.922214876,3.877044726,4.818988109,5.785347328,6.728909425,7.667552405,11.4684901,8.852198011
sac t1 ds2,54.243794,0.977017206,1.8819311,2.858637559,3.781862982,4.747427978,5.772246121,6.718070929,7.636375436,12.34191306,11.65648064
sac t1 ds3,675.926401,0.989502102,1.970567734,2.935463538,3.897915538,4.858038976,5.815950411,6.774473855,7.728086183,13.99124953,13.74945283
sac ds1,,12.648078,6.429526,4.321109,3.256916,2.620303,2.182619,1.876561,1.646837,1.101035,1.426449
sac ds2,,55.519794,28.823475,18.975401,14.343141,11.425933,9.397346,8.074311,7.103343,4.395088,4.653531
sac ds3,,683.097489,343.010996,230.262237,173.407144,139.135648,116.219423,99.775483,87.463621,48.310653,49.16024
,,,,,,,,,,,
hs t1 ds1,16.443406,1,1.978375921,2.961089369,3.913271405,4.888067708,5.810265574,6.733567704,7.586594993,6.348190195,1.391739351
hs t1 ds2,69.423164,0.987883201,1.955149088,2.921928673,3.866266684,4.812347719,5.729798737,6.664381054,7.006978903,6.211304273,1.278936631
hs t1 ds3,851.912354,0.968029044,1.899471817,2.815276427,3.699954622,4.562642434,5.393805323,6.195820748,6.887498105,4.814279793,1.104970292
hs ds1,,16.443406,8.311568,5.553161,4.201959,3.363989,2.830061,2.442005,2.167429,2.590251,11.815004
hs ds2,,70.274668,35.507862,23.759363,17.956124,14.426049,12.116161,10.417046,9.907717,11.176906,54.281942
hs ds3,,880.048341,448.499602,302.603448,230.249406,186.714687,157.942733,137.497902,123.689668,176.955306,770.982134
